Project 1
…
         January 1, 0001 

Introduction

For this project, I chose a dataset of COVID-19 statistics and a dataset of obesity among adults by country. The variables contained in the COVID-19 dataset are province/state, country/region, longitude, latitude, number of confirmed cases, number of deaths, number recovered, number active, and WHO region. The obesity dataset contains country, year, obesity % among adults, sex, and the oservation number (X1). I expect COVID-19 variables to be correlated with one another, such as confirmed cases and deaths, but I do not have any expectations for the relationship between mean obesity and COVID-19 data. I chose these datasets because these are two prevalent health conditions/diseases in our world today, and I am interested to dive into the releationships between them.

1. Tidying: Rearranging Wide/Long

Both of the datasets I found for this project are tidy. Every variable has its own column and every observation has its own row. I made them untidy with pivot_wider() and then made them tidy again pivot_longer(). Below, I made the covid dataset untidy by using pivot_longer() to combine the latitude and longitude variables into a single name column and values column, then I made it tidy again by using pivot_wider() to make the variables their own columns again.

coviduntidy <- covid %>% pivot_longer(cols = c(Lat, 
    Long), names_to = "name", values_to = "value")
coviduntidy %>% pivot_wider(names_from = "name", values_from = "value")

## # A tibble: 49,068 x 10
##    `Province/State` `Country/Region` Date       Confirmed Deaths Recovered
##    <chr>            <chr>            <date>         <dbl>  <dbl>     <dbl>
##  1 <NA>             Afghanistan      2020-01-22         0      0         0
##  2 <NA>             Albania          2020-01-22         0      0         0
##  3 <NA>             Algeria          2020-01-22         0      0         0
##  4 <NA>             Andorra          2020-01-22         0      0         0
##  5 <NA>             Angola           2020-01-22         0      0         0
##  6 <NA>             Antigua and Bar… 2020-01-22         0      0         0
##  7 <NA>             Argentina        2020-01-22         0      0         0
##  8 <NA>             Armenia          2020-01-22         0      0         0
##  9 Australian Capi… Australia        2020-01-22         0      0         0
## 10 New South Wales  Australia        2020-01-22         0      0         0
## # … with 49,058 more rows, and 4 more variables: Active <dbl>, `WHO
## #   Region` <chr>, Lat <dbl>, Long <dbl>

I made the obesity dataset untidy by using pivot_wider() to combine the country and sex variables into one name column with a values column of their data. I then made the dataset tidy again by using pivot_wider() to give country and year their own columns again, with their respective values in each column. I also chose to remove the sex variable and filter "Year" to the most recent year (2016), so my datasets would join more easily and make sense together. Finally, I used mutate() and recode() to rename the countries that had a different name in both datasets, since this is the variable I will be joining by.

obesityuntidy <- obesity %>% pivot_longer(cols = c(Country, 
    Sex), names_to = "name", values_to = "value")
obesityuntidy %>% pivot_wider(names_from = "name", 
    values_from = "value")

## # A tibble: 24,570 x 5
##       X1  Year `Obesity (%)` Country     Sex       
##    <dbl> <dbl> <chr>         <chr>       <chr>     
##  1     0  1975 0.5 [0.2-1.1] Afghanistan Both sexes
##  2     1  1975 0.2 [0.0-0.6] Afghanistan Male      
##  3     2  1975 0.8 [0.2-2.0] Afghanistan Female    
##  4     3  1976 0.5 [0.2-1.1] Afghanistan Both sexes
##  5     4  1976 0.2 [0.0-0.7] Afghanistan Male      
##  6     5  1976 0.8 [0.2-2.0] Afghanistan Female    
##  7     6  1977 0.6 [0.2-1.2] Afghanistan Both sexes
##  8     7  1977 0.2 [0.0-0.7] Afghanistan Male      
##  9     8  1977 0.9 [0.3-2.1] Afghanistan Female    
## 10     9  1978 0.6 [0.2-1.3] Afghanistan Both sexes
## # … with 24,560 more rows
…
joined3 %>% group_by(Date) %>% summarize_if(is.numeric, 
    n_distinct)

## # A tibble: 188 x 7
##    Date       Confirmed Deaths Recovered Active  Year `Mean Obesity (%)`
##    <date>         <int>  <int>     <int>  <int> <int>              <int>
##  1 2020-01-22         3      2         2      3     1                  4
##  2 2020-01-23         4      2         2      4     1                  5
##  3 2020-01-24         4      2         2      4     1                  6
##  4 2020-01-25         5      2         2      5     1                  8
##  5 2020-01-26         6      2         4      6     1                 10
##  6 2020-01-27         6      2         4      6     1                 13
##  7 2020-01-28         7      2         4      8     1                 13
##  8 2020-01-29         8      2         4      8     1                 15
##  9 2020-01-30        10      2         5      9     1                 17
## 10 2020-01-31        11      2         5      9     1                 21
## # … with 178 more rows
…
joined3 %>% summarize(mean(Confirmed), sd(Confirmed), 
    mean(Deaths), sd(Deaths), mean(Recovered), sd(Recovered), 
    mean(Active), sd(Active), mean(`Mean Obesity (%)`))

## # A tibble: 166 x 10
##    `Country/Region` `mean(Confirmed… `sd(Confirmed)` `mean(Deaths)` `sd(Deaths)`
##    <chr>                       <dbl>           <dbl>          <dbl>        <dbl>
##  1 Afghanistan               37479.          41610.          950.        1179.  
##  2 Albania                    4185.           3848.          121.          98.8 
##  3 Algeria                   22982.          22280.         1519.        1110.  
##  4 Andorra                    1914.            892.          110.          60.1 
##  5 Angola                      523.            716.           24.9         30.7 
##  6 Antigua and Bar…             98.3            72.3           7.14         3.49
##  7 Argentina                 90830.         129451.         1995.        2325.  
##  8 Armenia                   31957.          36877.          545.         674.  
##  9 Australia                 15656.          11805.          186.         146.  
## 10 Austria                   39643.          19393.         1391.         836.  
## # … with 156 more rows, and 5 more variables: `mean(Recovered)` <dbl>,
## #   `sd(Recovered)` <dbl>, `mean(Active)` <dbl>, `sd(Active)` <dbl>,
## #   `mean(\`Mean Obesity (%)\`)` <dbl>

joined3 %>% group_by(Date) %>% summarize(min(Confirmed), 
    median(Confirmed), max(Confirmed), min(Deaths), 
    median(Deaths), max(Deaths), min(Active), median(Active), 
    max(Active))

## # A tibble: 188 x 10
##    Date       `min(Confirmed)` `median(Confirm… `max(Confirmed)` `min(Deaths)`
##    <date>                <dbl>            <dbl>            <dbl>         <dbl>
##  1 2020-01-22                3              6               1644             0
##  2 2020-01-23                3              6               1929             0
##  3 2020-01-24                6              7.5             2760             0
##  4 2020-01-25                3              9               4218             0
##  5 2020-01-26                3             12               6225             0
##  6 2020-01-27                3             12               8631             0
##  7 2020-01-28                3             12              16527             0
##  8 2020-01-29                3             15              18261             0
##  9 2020-01-30                3             12              24423             0
## 10 2020-01-31                3             12              29406             0
## # … with 178 more rows, and 5 more variables: `median(Deaths)` <dbl>,
## #   `max(Deaths)` <dbl>, `min(Active)` <dbl>, `median(Active)` <dbl>,
## #   `max(Active)` <dbl>

joined3 %>% group_by(`Country/Region`, `WHO Region`) %>% 
    summarize(var(Confirmed), var(Active), var(Deaths), 
        var(Recovered))

## # A tibble: 166 x 6
## # Groups:   Country/Region [166]
##    `Country/Region` `WHO Region` `var(Confirmed)` `var(Active)` `var(Deaths)`
##    <chr>            <chr>                   <dbl>         <dbl>         <dbl>
##  1 Afghanistan      Eastern Med…      1731431484.    466211368.     1388926. 
##  2 Albania          Europe              14807757.      2572114.        9764. 
##  3 Algeria          Africa             496376251.     30354164.     1231058. 
##  4 Andorra          Europe                795350.       243756.        3615. 
##  5 Angola           Africa                513279.       242490.         942. 
##  6 Antigua and Bar… Americas                5230.         1324.          12.2
##  7 Argentina        Americas         16757572766.   5336663747.     5404467. 
##  8 Armenia          Europe            1359904706.    193801501.      453844. 
##  9 Australia        Western Pac…       139358364.     22166876.       21393. 
## 10 Austria          Europe             376102220.     59107968.      698352. 
## # … with 156 more rows, and 1 more variable: `var(Recovered)` <dbl>
…
